{
	"service_name": "",
	"message": "",
	"global_error": "",
	"error": "",
	"data": {
		"result_set": [{
			"workout_category_id": "1",
			"title": "Daily Workouts",
			"round_title": "Featured Workouts",
			"workout_count": "0",
			"status": "1",
			"workouts": [{
				"workout_id": "1",
				"workout_category_id": "1",
				"title": "Sting Story",
				"description": null,
				"workout_goal": "thihfbgkjfbg",
				"muscle_groups": "whole body,Back",
				"status": "1",
				"added_date": "2019-11-22 16:41:56",
				"like_count": "0"
			}, {
				"workout_id": "2",
				"workout_category_id": "1",
				"title": "Sting Story",
				"description": null,
				"workout_goal": "thihfbgkjfbg",
				"muscle_groups": "whole body,Back",
				"status": "1",
				"added_date": "2019-11-22 16:41:56",
				"like_count": "0"
			}, {
				"workout_id": "3",
				"workout_category_id": "1",
				"title": "Sting Story",
				"description": null,
				"workout_goal": "thihfbgkjfbg",
				"muscle_groups": "whole body,Back",
				"status": "1",
				"added_date": "2019-11-22 16:41:56",
				"like_count": "0"
			}]
		}, {
			"workout_category_id": "2",
			"title": "Fat Burning",
			"round_title": "Programs and Techniques",
			"workout_count": "0",
			"status": "1",
			"workouts": [{
				"workout_id": "1",
				"workout_category_id": "1",
				"title": "Sting Story",
				"description": null,
				"workout_goal": "thihfbgkjfbg",
				"muscle_groups": "whole body,Back",
				"status": "1",
				"added_date": "2019-11-22 16:41:56",
				"like_count": "0"
			}, {
				"workout_id": "2",
				"workout_category_id": "1",
				"title": "Sting Story",
				"description": null,
				"workout_goal": "thihfbgkjfbg",
				"muscle_groups": "whole body,Back",
				"status": "1",
				"added_date": "2019-11-22 16:41:56",
				"like_count": "0"
			}, {
				"workout_id": "3",
				"workout_category_id": "1",
				"title": "Sting Story",
				"description": null,
				"workout_goal": "thihfbgkjfbg",
				"muscle_groups": "whole body,Back",
				"status": "1",
				"added_date": "2019-11-22 16:41:56",
				"like_count": "0"
			}]
		}, {
			"workout_category_id": "3",
			"title": "Strength Building",
			"round_title": "Parts from Workouts",
			"workout_count": "0",
			"status": "1",
			"workouts": [{
				"workout_id": "1",
				"workout_category_id": "1",
				"title": "Sting Story",
				"description": null,
				"workout_goal": "thihfbgkjfbg",
				"muscle_groups": "whole body,Back",
				"status": "1",
				"added_date": "2019-11-22 16:41:56",
				"like_count": "0"
			}, {
				"workout_id": "2",
				"workout_category_id": "1",
				"title": "Sting Story",
				"description": null,
				"workout_goal": "thihfbgkjfbg",
				"muscle_groups": "whole body,Back",
				"status": "1",
				"added_date": "2019-11-22 16:41:56",
				"like_count": "0"
			}, {
				"workout_id": "3",
				"workout_category_id": "1",
				"title": "Sting Story",
				"description": null,
				"workout_goal": "thihfbgkjfbg",
				"muscle_groups": "whole body,Back",
				"status": "1",
				"added_date": "2019-11-22 16:41:56",
				"like_count": "0"
			}]
		}, {
			"workout_category_id": "4",
			"title": "Increase Repetition",
			"round_title": "Exercises",
			"workout_count": "0",
			"status": "1",
			"workouts": [{
				"workout_id": "1",
				"workout_category_id": "1",
				"title": "Sting Story",
				"description": null,
				"workout_goal": "thihfbgkjfbg",
				"muscle_groups": "whole body,Back",
				"status": "1",
				"added_date": "2019-11-22 16:41:56",
				"like_count": "0"
			}, {
				"workout_id": "2",
				"workout_category_id": "1",
				"title": "Sting Story",
				"description": null,
				"workout_goal": "thihfbgkjfbg",
				"muscle_groups": "whole body,Back",
				"status": "1",
				"added_date": "2019-11-22 16:41:56",
				"like_count": "0"
			}, {
				"workout_id": "3",
				"workout_category_id": "1",
				"title": "Sting Story",
				"description": null,
				"workout_goal": "thihfbgkjfbg",
				"muscle_groups": "whole body,Back",
				"status": "1",
				"added_date": "2019-11-22 16:41:56",
				"like_count": "0"
			}]
		}]
	},
	"response_code": 200
}